"";"Goldman Sachs";"Apple";"Microsoft";"Nike";"Boeing";"Coca-Cola";"JPMorgan";"Intel"
"2014-01-02";174,04845;77,0857;35,914;77,07521;131,88626;39,15192;56,32035;24,64127
"2014-01-03";175,28821;75,39245;35,67238;76,86834;132,80301;38,95934;56,75574;24,63171
"2014-01-06";176,4886;75,80357;34,91853;76,27728;133,56537;38,77639;57,08471;24,32596
"2014-01-07";175,42595;75,26144;35,18914;76,33638;135,59184;38,89194;56,42678;24,45017
"2014-01-08";175,57355;75,73806;34,56094;75,94233;135,89101;38,45863;56,95893;24,2973
"2014-01-09";174,55025;74,77088;34,33865;75,94233;137,15515;38,25642;56,8525;24,18265
"2014-01-10";175,52435;74,27197;34,83155;75,77486;136,9332;38,64158;56,59126;24,39285
"2014-01-13";173,05469;74,66079;33,80709;74,06077;135,77519;38,06384;55,82691;24,36418
"2014-01-14";173,76312;76,14639;34,58027;74,05092;135,10934;38,2179;55,86561;25,3292
"2014-01-15";175,87857;77,67521;35,52741;74,30704;135,698;38,28531;57,5588;25,48207
"2014-01-16";172,35608;77,24179;35,65305;73,67657;135,30235;38,23716;57,07503;25,35786
"2014-01-17";173,44824;75,34924;35,16015;72,29742;135,54361;37,82311;56,2236;24,69859
"2014-01-21";170,41772;76,51988;34,95719;72,65206;136,71124;38,43937;56,28165;24,45017
"2014-01-22";170,89001;76,85993;34,72524;72,40578;139,31674;38,42012;55,72048;24,18265
"2014-01-23";168,00708;77,51077;34,85088;71,64725;136,36385;37,7846;54,63684;24,01066
"2014-01-24";164,94704;76,1018;35,57573;70,58332;131,86696;37,39943;53,30164;23,70492
"2014-01-27";162,04443;76,71918;34,82188;70,82961;132,55211;37,29351;53,30164;23,61893
"2014-01-28";163,57938;70,58721;35,05384;71,62754;132,29155;37,42831;53,93054;23,79091
"2014-01-29";161,26712;69,78588;35,43076;70,70153;125,23743;36,49429;53,72735;23,58071
"2014-01-30";163,17595;69,6507;35,62406;72,83923;122,10118;36,75428;54,18209;23,63803
"2014-01-31";161,48358;69,76498;36,5712;71,76546;120,87564;36,41726;53,56287;23,44694
"2014-02-03";157,25267;69,89458;35,2568;69,82478;118,77194;35,82026;52,54696;22,88322
"2014-02-04";159,1615;70,90636;35,13115;69,4603;117,76834;36,08987;53,16618;22,75901
"2014-02-05";157,84302;71,43594;34,61893;69,54895;117,15074;36,21505;53,41774;22,68667
"2014-02-06";159,15166;71,85232;34,96686;70,44541;118,37629;36,61947;54,64651;23,14002
"2014-02-07";159,32877;72,85753;35,33412;71,60784;122,57403;36,54244;54,78197;23,35222
"2014-02-10";158,41371;74,16277;35,56607;71,58813;122,70914;37,13944;54,89808;23,42939
"2014-02-11";161,74925;75,13993;35,92366;72,87864;125,60413;37,20685;55,56567;23,60301
"2014-02-12";160,87355;75,13432;36,2136;73,0067;124,34256;37,08167;55,65275;23,68018
"2014-02-13";161,42455;76,3274;36,34891;73,75539;125,67206;37,21648;56,14619;23,82486
"2014-02-14";161,09001;76,26572;36,35857;73,95241;126,31255;37,48609;56,2623;23,88274
"2014-02-18";162,00507;76,54611;36,43647;74,09032;126,76866;36,08024;56,59126;23,88274
"2014-02-19";160,63739;75,33762;36,5241;73,70613;124,59487;35,72396;55,40119;23,63195
"2014-02-20";161,85748;74,46559;36,7578;74,45482;125,73029;35,91655;55,7108;23,86345
"2014-02-21";161,85748;73,63843;36,98175;75,34142;124,48812;35,801;55,73983;23,55478
"2014-02-24";163,8647;73,96088;36,69937;76,68117;125,7594;36,10913;56,14619;23,75734
"2014-02-25";160,85387;73,1912;36,55331;76,94715;123,03246;36,36911;55,17866;23,7477
"2014-02-26";160,72552;72,53087;36,48516;77,25253;122,86749;36,4654;54,90775;23,92132
"2014-02-27";163,27266;73,97771;36,86491;77,09443;124,75984;36,65799;54,84969;23,88274
"2014-02-28";164,32901;73,77722;37,30308;77,37112;125,10921;36,78317;54,97548;23,88274
"2014-03-03";162,64081;73,99033;36,78701;76,47191;124,4299;36,70613;54,38528;23,63195
"2014-03-04";166,57996;74,47821;37,40045;77,68732;126,38048;36,88909;55,40119;23,73805
"2014-03-05";169,70956;74,63523;37,10833;76,50155;124,98304;36,9276;56,27198;23,63195
"2014-03-06";170,40065;74,40951;37,14729;77,29206;125,05098;37,04315;56,98795;23,75734
"2014-03-07";172,03949;74,36604;36,90385;78,51735;124,74043;37,12019;57,47172;23,76699
"2014-03-10";171,29906;74,43334;36,82595;78,04305;123,13921;37,21648;57,27821;23,9599
"2014-03-11";167,72519;75,15816;37,0207;77,86519;121,95527;37,36091;56,301;23,8538
"2014-03-12";167,55736;75,23106;37,26413;78,03316;120,75193;37,33665;56,03976;23,88274
"2014-03-13";164,57584;74,39548;36,89412;77,59838;118,28701;36,85138;55,556;23,69947
"2014-03-14";163,24304;73,55991;36,70911;77,39088;119,47095;37,04549;54,95612;23,63195
"2014-03-17";164,71405;73,84732;37,04991;78,04305;121,71266;37,14254;55,7108;23,82486
"2014-03-18";165,94812;74,50064;38,51048;78,69521;120,37346;37,26871;56,17522;23,94061
"2014-03-19";166,03697;74,48101;38,23785;78,21103;118,62666;37,01637;56,40743;24,13353
"2014-03-20";167,06372;74,12211;39,26999;78,32961;120,07262;37,31724;58,15867;24,529
"2014-03-21";164,82265;74,70673;39,10445;74,31777;118,95661;37,30753;58,21672;24,27821
"2014-03-24";163,60832;75,59277;39,43552;73,97192;119,77178;37,26871;59,08751;24,22998
"2014-03-25";161,1698;76,40591;39,27972;72,77628;120,35404;37,48223;58,95205;24,55793
"2014-03-26";159,66916;75,67548;38,74418;72,35138;119,87853;37,47253;57,95549;24,48077
"2014-03-27";160,22202;75,35023;38,32548;72,4502;119,56799;37,67634;57,97484;24,41325
"2014-03-28";160,2319;75,26612;39,24077;72,66758;120,78104;37,80251;58,09095;24,71227
"2014-03-31";161,76216;75,24928;39,91264;72,98379;121,78059;37,52105;58,73919;24,89553
"2014-04-01";163,80577;75,93765;40,33133;73,5075;124,4202;37,27842;58,70049;25,06916
"2014-04-02";165,13858;76,06384;40,26317;73,65572;124,51723;37,20078;58,88549;24,9727
"2014-04-03";163,9736;75,5367;39,93211;73,11224;124,97334;36,94843;59,06074;25,47428
"2014-04-04";161,15993;74,55952;38,82207;71,97588;123,61472;37,09402;58,23315;25,23313
"2014-04-07";156,53955;73,38888;38,75391;69,98973;121,87763;37,48223;57,4445;25,55144
"2014-04-08";154,56503;73,38467;38,77339;72,05494;120,4802;37,75398;57,29846;25,95656
"2014-04-09";156,14465;74,34923;39,40631;72,68734;123,1295;37,84133;57,70739;26,02408
"2014-04-10";153,99243;73,39028;38,32548;71,59051;119,98528;37,74428;55,88669;25,49357
"2014-04-11";150,77397;72,84772;38,17942;70,40475;118,46169;37,49194;53,84205;25,25243
"2014-04-14";152,76823;73,13792;38,15021;71,52134;119,6068;37,58899;53,51102;25,61896
"2014-04-15";152,94594;72,6164;38,70523;71,42253;120,59666;38,99627;53,35524;25,82152
"2014-04-16";155,21663;72,7636;39,33815;72,2328;122,31434;39,3942;53,8031;25,97585
"2014-04-17";155,43382;73,59497;38,95839;73,15177;124,13876;39,52037;53,76416;26,08195
"2014-04-21";155,78925;74,4684;38,89023;73,02332;124,04172;39,54948;53,57917;25,99514
"2014-04-22";158,41534;74,54269;38,93892;73,46797;123,7797;39,51066;54,33861;25,88904
"2014-04-23";158,40547;73,56833;38,6468;73,22094;126,76866;39,53007;54,57228;25,80223
"2014-04-24";158,80038;79,5996;38,81234;72,51936;126,02142;39,50095;54,70859;25,80223
"2014-04-25";156,22363;80,18422;38,86102;71,83755;124,8569;39,80182;54,23151;25,32959
"2014-04-28";154,54529;83,28959;39,79579;70,81976;123,28477;39,82123;54,02705;25,39711
"2014-04-29";156,22363;83,04283;39,44525;71,62016;124,57545;39,37478;54,62096;25,5418
"2014-04-30";157,78351;82,72879;39,33815;72,08458;125,20625;39,5883;54,50412;25,74436
"2014-05-01";158,32649;82,92367;38,94866;72,05494;124,66281;39,57859;54,25098;25,51286
"2014-05-02";156,85548;83,07789;38,6468;72,12411;126,09906;39,74359;54,11467;25,47428
"2014-05-05";154,35773;84,25274;38,39364;72,42055;128,05936;39,55919;52,79053;25,45968
"2014-05-06";152,57077;83,33444;38,03337;71,39288;126,96275;39,29714;51,93373;25,48887
"2014-05-07";153,5383;83,04283;38,3839;71,32372;127,20672;39,70477;52,62501;25,65425
"2014-05-08";155,39433;82,89481;38,59812;72,1834;127,42142;39,53007;52,92683;25,62507
"2014-05-09";155,19688;82,5494;38,50075;72,57864;127,93864;39,66594;52,58606;25,58615
"2014-05-12";157,51694;83,57716;38,91945;73,74465;129,40247;39,61742;53,20919;25,65425
"2014-05-13";158,23764;83,70827;39,63527;73,70512;130,23196;39,89888;53,17998;25,73208
"2014-05-14";157,41821;83,72377;39,45877;72,70711;129,78307;39,68536;52,92683;25,61534
"2014-05-15";154,64403;83,01182;38,83119;72,0747;128,04599;39,32626;52,09924;25,30403
"2014-05-16";154,43669;84,23693;39,05673;73,06284;127,65562;39,68536;51,90452;25,11918
"2014-05-19";155,66089;85,23508;38,97828;73,60631;128,1826;39,51066;52,41081;25,33321
"2014-05-20";154,35773;85,25199;38,90964;72,39091;126,45528;39,38449;52,30371;25,33321
"2014-05-21";157,31949;85,47755;39,56663;73,32964;127,80201;39,66594;52,69316;25,48887
"2014-05-22";157,81313;85,61291;39,32148;73,99168;128,66078;39,38449;53,11182;25,44023
"2014-05-23";158,11917;86,58002;39,3411;74,95018;129,21704;39,38449;53,09235;25,57643
"2014-05-27";159,70866;88,20129;39,40974;75,70116;130,9346;39,56889;53,68627;25,98503
"2014-05-28";159,67894;87,97291;39,23323;75,3652;131,09074;39,38449;53,9881;26,15041
"2014-05-29";159,23315;89,57584;39,55683;75,71213;131,88121;39,46213;54,25098;26,22824
"2014-05-30";158,31187;89,24032;40,14518;76,2375;131,98856;39,70477;54,10493;26,57847
"2014-06-02";158,5298;88,62704;39,99809;76,04916;132,62288;39,65624;53,89073;26,5201
"2014-06-03";160,28322;89,88036;39,5078;74,8894;132,60336;39,67565;54,13414;26,90924
"2014-06-04";160,86769;90,9067;39,53722;75,46432;132,06664;39,5883;54,21204;26,85087
"2014-06-05";161,05591;91,26337;40,40993;75,2066;133,52071;39,68536;55,13699;26,90924
"2014-06-06";164,63206;91,01244;40,67469;75,56345;134,91621;39,78241;55,46803;27,4054
"2014-06-09";164,44385;92,46876;40,46877;75,9996;134,63321;39,70477;55,90616;27,15245
"2014-06-10";164,80048;93,01153;40,31188;75,64275;133,94032;39,86005;56,37351;27,4735
"2014-06-11";163,87918;92,62666;40,06673;74,48298;130,86629;39,65624;55,76012;27,17191
"2014-06-12";164,40422;91,07729;39,79217;74,11621;129,00235;39,52423;55,53618;27,2011
"2014-06-13";164,33487;90,08056;40,42955;73,96752;129,09993;39,47534;55,53618;29,05926
"2014-06-16";164,29526;90,98846;40,69431;73,89814;129,3439;39,75891;55,37066;29,19546
"2014-06-17";166,64304;90,87005;40,87081;74,43341;129,25607;40,01315;55,90616;29,13708
"2014-06-18";168,26765;90,96873;40,8414;75,54362;129,28535;40,63897;56,25667;29,11763
"2014-06-19";168,13887;90,65294;40,70411;74,9786;129,61716;40,86387;55,78932;29,27328
"2014-06-20";168,24785;89,71542;40,87081;74,44332;128,91452;40,76608;56,03273;29,3803
"2014-06-23";168,6441;89,63647;41,17479;74,79026;127,69466;40,8052;56,65586;29,40948
"2014-06-24";166,65294;89,0937;40,93945;74,32438;126,03564;40,92254;55,90616;29,67216
"2014-06-25";166,80154;89,17265;41,21402;75,80135;123,99605;41,0301;56,01326;30,04184
"2014-06-26";166,435;89,70555;40,91004;76,18793;124,93291;41,09855;55,87695;29,94456
"2014-06-27";165,21652;90,77136;41,42974;77,00076;125,44035;41,255;56,01326;30,09049
"2014-06-30";165,87035;91,70888;40,89042;76,8719;124,16196;41,42124;56,10089;30,0613
"2014-07-01";165,24625;92,29112;41,05712;77,31797;125,05976;41,35279;56,44404;30,13913
"2014-07-02";165,3255;92,25165;41,08654;77,1098;124,54255;41,35279;55,85578;30,13913
"2014-07-03";167,87141;92,79442;40,98848;77,76403;125,41108;41,29412;55,93421;30,29478
"2014-07-07";166,20715;94,70893;41,17479;77,96229;125,9771;41,20611;55,56164;30,18777
"2014-07-08";163,36406;94,09708;40,96887;76,99085;123,73256;41,01054;54,66944;29,95429
"2014-07-09";163,12631;94,13655;40,861;78,00194;123,73256;41,02032;54,92436;30,05157
"2014-07-10";161,88803;93,79115;40,88062;76,82234;123,73256;41,32345;54,47335;30,41153
"2014-07-11";163,2551;93,96879;41,27285;76,61417;125,00121;41,03988;54,70866;30,4018
"2014-07-14";165,43446;95,18262;41,32188;77,2684;126,39674;41,4408;55,18908;30,63529
"2014-07-15";167,58412;94,06747;41,62586;77,3477;125,98686;41,167;57,13035;30,84931
"2014-07-16";168,87193;93,53456;43,22422;76,24741;124,34737;41,18655;57,56174;33,70952
"2014-07-17";168,54503;91,86677;43,66548;75,86082;122,84451;41,08877;56,72837;32,7853
"2014-07-18";169,86256;93,18916;43,82237;76,84216;124,56207;41,48969;57,09113;32,7853
"2014-07-21";170,11023;92,7056;43,96946;76,14828;125,20615;41,46035;57,10094;33,13553
"2014-07-22";173,37929;93,47536;43,95966;76,36636;126,61143;40,27716;57,52253;33,84572
"2014-07-23";175,16241;95,9129;43,99888;76,69348;123,65449;39,90559;57,84607;33,56359
"2014-07-24";174,60765;95,755;43,53801;77,91272;121,40019;40,06204;58,01275;33,32037
"2014-07-25";173,75572;96,38659;43,63606;77,04042;120,22913;40,09138;57,85588;33,32037
"2014-07-28";174,30057;97,71885;43,11636;77,71447;120,09251;39,77847;58,03236;33,30091
"2014-07-29";173,89441;97,08726;43,03791;77,41709;119,37035;39,45578;57,49311;33,262
"2014-07-30";174,11235;96,86028;42,73392;78,91389;119,34108;38,74196;57,75784;33,41766
"2014-07-31";171,24944;94,34379;42,32208;76,45557;117,57472;38,41927;56,54208;32,97014
"2014-08-01";168,65401;94,86682;42,0279;76,10863;117,47713;38,41927;55,37536;32,82422
"2014-08-04";170,08051;94,33392;42,528;76,48531;117,03799;38,52684;55,54204;33,1258
"2014-08-05";167,83179;93,8701;42,24363;76,24741;118,34566;38,31171;54,96358;32,14157
"2014-08-06";168,14879;93,7122;41,91023;76,46548;116,18571;39,03531;55,13025;32,17096
"2014-08-07";167,51479;93,70229;42,39072;75,6824;117,65841;38,47794;54,81651;32,00447
"2014-08-08";170,64516;93,96014;42,3613;76,38618;118,43403;38,57573;55,2381;31,92612
"2014-08-11";170,84329;95,19985;42,3613;76,38618;118,60094;38,69307;55,21849;32,33744
"2014-08-12";170,71451;95,18002;42,67509;76,05907;118,27695;38,80063;55,2479;32,44517
"2014-08-13";170,75412;96,43956;43,22422;76,57452;119,75946;39,05487;55,61067;33,39511
"2014-08-14";171,11075;96,69742;43,41053;76,62409;121,85069;39,28955;55,86558;33,23842
"2014-08-15";170,28853;97,17347;43,92043;76,45557;120,91798;39,97404;55,64008;33,46367
"2014-08-18";172,9137;98,34376;44,23422;77,86316;122,70485;40,43362;56,11069;33,69871
"2014-08-19";172,32922;99,70248;44,72758;77,82351;123,29392;40,34561;56,43424;33,63016
"2014-08-20";172,39856;99,74215;44,35263;78,22002;125,0317;40,33583;56,51267;33,78685
"2014-08-21";173,50806;99,75207;44,61904;78,24975;125,17897;40,49229;57,35585;34,42341
"2014-08-22";173,82507;100,48598;44,54997;78,59669;125,13969;40,20872;57,34605;34,21775
"2014-08-25";176,20256;100,70416;44,5697;79,31039;125,99387;40,49229;58,17942;34,09044
"2014-08-26";176,23228;100,05952;44,41183;78,78503;126,25895;40,67808;58,5716;34,08065
"2014-08-27";176,68939;101,28931;44,27369;79,02293;125,86623;40,67808;58,42453;34,07085
"2014-08-28";176,5304;101,40832;44,28356;78,36672;124,79607;40,70742;58,00294;33,93375
"2014-08-29";177,9812;101,65627;44,82625;78,09828;124,49171;40,79542;58,28727;34,19817
"2014-09-02";178,63704;102,44968;44,49076;78,82407;123,19575;40,71719;58,50297;33,8554
"2014-09-03";178,46811;98,12557;44,36249;78,36672;123,64737;40,85409;58,53238;33,8554
"2014-09-04";178,94508;97,31232;44,6585;79,4604;123,17611;40,9421;58,54219;34,18837
"2014-09-05";178,61716;98,15532;45,29987;81,56821;122,42013;40,91276;58,73828;34,27651
"2014-09-08";178,9749;97,55034;45,85243;81,92614;125,65024;40,85409;58,71867;34,59969
"2014-09-09";176,28197;97,18339;46,13857;81,36935;125,87605;41,01054;57,9049;34,18837
"2014-09-10";178,7364;100,16861;46,21751;81,99574;125,88586;41,23545;58,06177;34,2961
"2014-09-11";179,85928;100,59507;46,37538;81,34947;125,31642;41,31917;58,59121;34,2961
"2014-09-12";182,01561;100,82318;46,07937;81,36935;124,63898;40,83654;58,85593;33,90437
"2014-09-15";182,8205;100,79342;45,62548;81,14068;124,01063;40,87594;58,76769;33,82602
"2014-09-16";182,88011;100,02976;46,13857;80,73303;125,00225;41,01383;58,81671;34,20796
"2014-09-17";183,65521;100,74384;45,90176;81,04126;125,43424;40,98428;59,13046;34,25692
"2014-09-18";186,70586;100,95211;46,05964;81,49861;126,23931;41,16158;60,1207;34,443
"2014-09-19";185,0265;100,12894;46,88847;81,33952;126,9953;41,41767;59,91481;34,10023
"2014-09-22";184,12224;100,22811;46,43459;80,24586;126,26877;41,58511;59,71872;33,99251
"2014-09-23";183,92351;101,79511;45,94123;79,65925;125,06115;41,26007;59,74813;33,7085
"2014-09-24";186,62636;100,91244;46,45432;80,37511;126,23931;41,63436;60,42464;34,03168
"2014-09-25";182,92981;97,06438;45,42814;79,29137;124,82552;41,15173;58,97358;33,43429
"2014-09-26";183,95331;99,92067;45,79322;88,98531;126,34731;41,56541;59,37556;33,55181
"2014-09-29";182,67145;99,28593;45,82282;88,60749;126,42586;41,61466;59,15006;34,17858
"2014-09-30";182,4131;99,92067;45,74389;88,68703;125,06115;42,01849;59,06182;34,10023
"2014-10-01";179,56117;98,36359;45,29;87,19566;122,40049;42,09729;58,60101;33,28739
"2014-10-02";181,72745;99,07767;45,15186;88,78646;121,90959;42,01849;58,07788;32,82711
"2014-10-03";186,88474;98,79997;45,47747;89,77077;124,05972;42,35338;59,51897;33,32656
"2014-10-06";186,29845;98,79997;45,47747;88,70692;123,96155;42,94436;59,40052;33,40491
"2014-10-07";182,64165;97,93713;44,92492;87,56353;121,07507;43,25954;58,50231;32,77814
"2014-10-08";185,46375;99,97026;46,15831;88,31916;122,70485;43,88007;59,61767;33,5616
"2014-10-09";180,12759;100,18845;45,24066;86,72836;120,52526;43,2103;58,31477;32,92504
"2014-10-10";179,24319;99,90083;43,44485;86,68859;119,28819;43,80128;57,76202;31,25039
"2014-10-13";177,64334;98,9884;43,0699;84,89894;118,25731;43,40729;57,40668;30,81948
"2014-10-14";177,57378;97,93713;43,14884;84,60066;120,06381;42,98376;57,23889;31,47563
"2014-10-15";176,12299;96,73709;42,64562;84,69015;118,00204;42,57992;54,81075;30,63341
"2014-10-16";171,49236;95,46763;42,172;86,53945;118,10022;41,92;54,36658;30,2123
"2014-10-17";175,79506;96,86602;43,05017;86,67865;120,99652;42,23519;55,47207;30,73134
"2014-10-20";176,71919;98,93882;43,49419;88,38876;122,04704;42,63902;55,8965;30,92721
"2014-10-21";179,04445;101,62651;44,28356;90,11875;124,80589;40,06827;57,17966;31,93592
"2014-10-22";175,71556;102,14223;43,7902;89,34324;119,23911;40,00917;56,70588;31,60295
"2014-10-23";178,9252;103,96709;44,4217;89,8503;119,80855;40,24556;57,30798;32,01426
"2014-10-24";182,19447;104,35387;45,51694;90,37726;120,01472;40,413;57,97918;32,49413
"2014-10-27";182,75095;104,24478;45,29987;91,113;119,89691;40,14706;57,88047;32,51372
"2014-10-28";185,14577;105,86136;45,87216;91,91833;121,35979;39,95007;58,85765;33,04256
"2014-10-29";184,90727;106,45642;46,00043;91,42121;120,83943;40,34406;58,52205;33,21883
"2014-10-30";185,79166;106,09939;45,43801;92,46518;121,56596;40,77744;58,62075;31,90654
"2014-10-31";188,79263;107,11099;46,32605;92,43535;122,63612;41,25023;59,69664;33,30698
"2014-11-03";189,62733;108,49947;46,80953;92,91259;123,73573;41,18128;60,09146;33,60078
"2014-11-04";189,07086;107,70605;46,93781;93,40971;123,54919;41,19112;59,46962;33,82602
"2014-11-05";188,64357;107,96391;47,22395;94,13551;122,6703;41,67376;60,35796;33,27893
"2014-11-06";189,79626;108,27268;48,05279;94,05598;123,0258;41,65406;60,43692;33,33807
"2014-11-07";189,5081;108,58147;48,03305;93,24069;122,89742;41,68361;60,67381;33,10149
"2014-11-10";190,59122;108,40218;48,24026;94,4139;123,08505;41,75255;61,12785;32,78605
"2014-11-11";190,67072;109,26875;48,22053;94,33437;123,79607;41,87075;60,57511;32,83534
"2014-11-12";188,98141;110,81267;48,13173;95,25902;124,29971;42,06774;59,7756;32,90435
"2014-11-13";189,04106;112,3765;48,9507;95,56724;126,92652;42,14654;59,44987;33,20007
"2014-11-14";188,78268;113,73115;48,9211;94,9508;127,25241;42,08744;59,49923;33,46622
"2014-11-17";188,733;113,54189;48,80269;95,50758;126,81789;42,27458;59,59793;33,75209
"2014-11-18";188,44482;115,01608;48,39559;95,91522;129,02995;42,87541;59,74599;34,21539
"2014-11-19";187,99767;114,21922;47,87926;96,39246;129,96809;43,55503;59,81508;33,86052
"2014-11-20";188,55414;115,85277;48,35587;96,74046;130,05698;43,58458;59,3413;35,43772
"2014-11-21";188,39514;116,01215;47,64096;96,85976;131,1235;43,83083;59,66703;35,08285
"2014-11-24";188,87213;118,16365;47,25372;97,38671;132,93068;43,60428;60,17042;35,73345
"2014-11-25";187,66975;117,1377;47,13456;96,73051;133,12817;43,76188;59,51897;35,80245
"2014-11-26";187,33189;118,5322;47,41258;97,23758;133,09856;43,92552;59,55845;36,37419
"2014-11-28";187,82037;118,46247;47,47216;98,71901;132,68379;44,46107;59,38078;36,7192
"2014-12-01";187,61102;114,61765;48,27644;97,12821;130,73837;44,18338;59,22285;36,64034
"2014-12-02";189,59479;114,17937;48,11757;97,4762;130,62975;44,17346;60,28887;37,06421
"2014-12-03";190,35242;115,47427;47,74025;97,93355;130,32361;43,43955;60,74291;36,89663
"2014-12-04";191,34929;115,036;48,49488;98,48039;129,68173;43,14202;60,58498;36,9262
"2014-12-05";194,83833;114,54792;48,07785;98,75877;130,56062;43,17177;61,88788;37,13321
"2014-12-08";196,00467;111,95815;47,36294;97,15804;128,65469;42,78498;61,85827;36,66991
"2014-12-09";196,27382;113,67139;47,25372;96,472;128,04243;41,69403;61,64112;36,36433
"2014-12-10";191,39912;111,50991;46,56859;97,09838;123,08505;41,25765;59,89405;35,90102
"2014-12-11";192,9343;111,18121;46,83668;96,64968;121,8309;41,18823;60,34809;36,17704
"2014-12-12";188,22908;109,29865;46,61824;95,89188;119,26333;40,57333;59,26234;35,71373
"2014-12-15";184,95934;107,80454;46,34021;95,15402;120,55699;40,23613;58,39373;35,40815
"2014-12-16";182,73633;106,33035;44,84089;92,94044;122,69992;40,05761;57,67319;35,05328
"2014-12-17";184,45094;108,9799;45,41679;94,22671;123,49981;41,20807;58,99583;35,72359
"2014-12-18";191,01035;112,20716;47,18421;96,79925;124,1022;42,04115;60,68368;36,49247
"2014-12-19";192,67513;111,34058;47,32322;94,56572;124,65522;41,60477;61,12785;35,85173
"2014-12-22";193,8315;112,49603;47,64096;95,65257;126,62039;42,00148;61,13773;36,67977
"2014-12-23";194,88817;112,0976;48,10764;95,69246;128,40781;42,61638;61,67073;36,89663
"2014-12-24";195,27695;111,56968;47,79983;96,01154;129,60272;42,58663;61,67073;36,90649
"2014-12-26";194,83833;113,54189;47,54167;96,54997;129,98785;42,60646;61,73982;37,01492
"2014-12-29";195,57602;113,46221;47,1147;97,01862;130,63962;42,50729;62,14451;36,6502
"2014-12-30";195,09752;112,07767;46,68774;96,59982;130,18536;42,40811;62,33205;36,23618
"2014-12-31";193,2234;109,94608;46,12177;95,87194;128,35843;41,87255;61,76944;35,77288
"2015-01-02";193,80159;108,90022;46,42958;94,75517;128,32881;41,79321;62,07739;35,84188
"2015-01-05";187,75058;105,83232;46,00262;93,2296;127,44004;41,79321;60,1502;35,43772
"2015-01-06";183,9525;105,84229;45,32742;92,68119;125,939;42,11058;58,59056;34,77727
"2015-01-07";186,69389;107,32642;45,90332;94,59564;127,89429;42,63622;58,67997;35,50673
"2015-01-08";189,67455;111,45015;47,25372;96,7793;130,15573;43,15194;59,99126;36,16718
"2015-01-09";186,76369;111,56968;46,85654;95,7124;129,89897;42,67589;58,94819;36,23618
"2015-01-12";184,49083;108,82053;46,27071;95,58278;129,23734;42,2891;58,44156;36,07846
"2015-01-13";184,35124;109,78671;46,03241;94,73524;129,53358;42,27918;58,45149;35,97989
"2015-01-14";179,66595;109,36837;45,63523;93,439;128,75345;42,20975;56,43489;35,83202
"2015-01-15";177,93141;106,40008;45,15862;92,5416;128,51643;42,03124;54,62691;35,6743
"2015-01-16";176,67535;105,57334;45,91325;92,72108;129,14845;42,18;55,5607;35,9306
"2015-01-20";175,08037;108,29261;46,06219;93,33929;129,58296;42,80482;55,34216;35,57573
"2015-01-21";176,5956;109,11935;45,59551;93,23958;130,75812;43,00317;55,52097;35,96017
"2015-01-22";181,47029;111,95815;46,79697;95,57281;133,94783;43,41972;57,20974;36,38404
"2015-01-23";179,92516;112,53587;46,84661;95,88191;132,94055;42,95358;56,30575;35,9306
"2015-01-26";179,85536;112,65539;46,67781;96,07136;132,39742;42,64613;56,39516;35,29972
"2015-01-27";175,93767;108,71096;42,35855;94,22671;130,82724;42,04115;55,82892;33,7028
"2015-01-28";172,50844;114,8567;40,89894;93,04015;137,89792;41,57502;54,3885;33,29864
"2015-01-29";175,43924;118,43259;41,71314;94,59564;145,93637;41,75354;55,30242;33,72252
"2015-01-30";171,87044;116,69943;40,11452;91,98322;143,55643;40,83119;54,02094;32,56919
"2015-02-02";174,9408;118,16365;40,9883;91,65417;144,43533;41,24774;55,10374;33,1705
"2015-02-03";179,67593;118,18358;41,30604;93,08003;145,50186;41,28741;56,34549;33,21978
"2015-02-04";178,2205;119,09;41,54435;92,27238;145,38336;41,337;56,00773;33,35878
"2015-02-05";180,20427;119,94;42,15004;93,07006;146,74615;41,44609;56,39516;33,69633
"2015-02-06";182,85594;118,93;42,11032;91,52455;146,15363;41,10889;57,50776;33,06093
"2015-02-09";181,64973;119,72;42,06067;90,90634;145,73888;40,8907;57,43822;32,69359
"2015-02-10";183,98241;122,02;42,29897;92,48177;146,19312;42,05107;58,074;33,45806
"2015-02-11";187,06273;124,88;42,08053;91,04594;146,9781;42,02132;57,98459;33,30914
"2015-02-12";189,18608;126,46;42,78551;91,73394;147,14702;41,82296;59,17667;33,88498
"2015-02-13";188,40852;127,08;43,56;91,77383;148,77657;41,64445;59,27601;34,11332
"2015-02-17";189,42532;127,83;43,58;91,59435;148,96536;41,46593;59,70317;34,4906
"2015-02-18";188,07954;128,72;43,53;93,34926;150,2074;41,38659;58,97799;34,02397
"2015-02-19";188,51817;128,45;43,5;93,42902;152,77098;41,76346;58,83891;33,9644
"2015-02-20";190,91066;129,5;43,86;94,65546;157,30194;41,62461;59,40515;34,16296
"2015-02-23";189,71442;133;44,15;94,73524;153,75468;41,5056;58,95812;33,51763
"2015-02-24";191,61844;132,17;44,09;95,14405;153,39697;41,78329;60,41842;34,16296
"2015-02-25";191,12001;128,78999;43,99;96,54;152,03569;41,70395;60,7363;33,70627
"2015-02-26";192,2;130,42;44,06;96,99;150,76384;42,11058;61,1734;33,40842
"2015-02-27";189,78999;128,46001;43,85;97,12;149,88945;42,94366;60,87538;33,01129
"2015-03-02";191,78999;129,09;43,88;98,75;152,82066;42,84449;61,36214;33,81548
"2015-03-03";191,27;129,36;43,28;97,97;154,57939;42,59655;61,56083;33,85519
"2015-03-04";189,67;128,53999;43,06;97,52;153,36716;42,15025;61,71977;33,87505
"2015-03-05";190,08;126,41;43,11;98,46;153,48639;42,05107;61,59063;33,48785
"2015-03-06";186,91;126,6;42,36;96,91;152,14499;41,17831;60,48795;32,95172
"2015-03-09";187,92999;127,14;42,85;97,43;153,7646;41,04938;61,09393;32,4851
"2015-03-10";182,71001;124,51;42,03;96,51;151,44945;40,35514;59,56409;31,47242
"2015-03-11";184,17999;122,24;41,98;95,34;150,2074;39,77;59,84225;32,0979
"2015-03-12";189,95;124,45;41,02;97,04;151,07185;40,57;60,96478;30,57888
"2015-03-13";189,34;123,59;41,38;95,81;150,60487;39,91;60,59723;30,70795
"2015-03-16";191,89999;124,95;41,56;96,44;152,69148;40,29;61,44161;30,60867
"2015-03-17";190,57001;127,04;41,7;96,54;153,52614;40,51;61,2032;30,37039
"2015-03-18";192,32001;128,47;42,5;97,51;154,73837;40,6;61,34228;30,66823
"2015-03-19";189,97;127,5;42,29;98,32;153,12869;40,02;60,79591;30,51931
"2015-03-20";193,13;125,9;42,88;101,98;153,5162;40,65;61,34228;31,08522
"2015-03-23";191,96001;127,21;42,86;101,46;151,83696;40,62;60,7363;30,97601
"2015-03-24";191,28;126,69;42,9;100,65;150,68434;40,47;60,06079;30,56895
"2015-03-25";187,35001;123,38;41,46;98,99;147,28612;40,45;59,21641;29,67541
"2015-03-26";187,24001;124,24;41,21;99,33;147,2265;40,35;59,14687;29,86405
"2015-03-27";188,06;123,25;40,97;99,88;147,90219;40,08;59,1568;31,77027
"2015-03-30";191,02;126,37;40,96;100,89;151,72766;40,51;60,55749;31,23414
"2015-03-31";187,97;124,43;40,66;100,33;149,12434;40,55;60,18;31,04551
"2015-04-01";192,23;124,25;40,72;99,55;147,69351;40,68;59,95;30,58881
"2015-04-02";191,55;125,32;40,29;99,66;148,32944;40,68;60,52;30,58881
"2015-04-06";192,05;127,35;41,55;99,73;149,96893;41,17;60,47;30,81716
"2015-04-07";192,39;126,01;41,53;99,61;151,3501;41,01;60,85;31,03558
"2015-04-08";192,56;125,6;41,42;100,84;152,38347;40,89;61,05;31,08522
"2015-04-09";194,89;126,56;41,48;100,72;152,44308;41,05;61,47;31,01572
"2015-04-10";195,64;127,1;41,72;99,97;153,39697;40,88;61,7;31,70077
"2015-04-13";195,58;126,85;41,76;99,27;152,26424;40,7;62,07;31,5022
"2015-04-14";197,72;126,3;41,65;99,53;152,23442;40,51;63,04;31,26393
"2015-04-15";201,10001;126,78;42,26;99,83;151,45938;40,4;64,21;32,59431
"2015-04-16";200,21001;126,17;42,16;99,9;151,00232;40,6;63,81;32,63402
"2015-04-17";197,35001;124,75;41,62;98,55;148,64742;40,3;62,84;32,23689
"2015-04-20";198,10001;127,6;42,91;99,99;151,69785;40,66;63,24;32,49503
"2015-04-21";196,84;126,91;42,64;100,29;152,35365;40,78;62,31;32,19718
"2015-04-22";198,32001;128,62;42,99;100,15;150,22728;41,31;62,94;32,46524
"2015-04-23";199,31;129,67;43,34;101,11;148,91568;40,95;62,8;32,11775
"2015-04-24";197,99001;130,28;47,87;100,95;147,45503;40,89;62,6;31,84969
"2015-04-27";196,52;132,64999;48,03;100,94;146,85887;40,83;62,34;32,26668
"2015-04-28";197,49001;130,56;49,16;99,86;146,57071;40,77;62,76;32,78294
"2015-04-29";198,56;128,64;49,06;100,17;145,21936;40,49;63,6;32,65388
"2015-04-30";196,42;125,15;48,64;98,84;142,42726;40,56;63,26;32,31631
"2015-05-01";197,53;128,95;48,66;100,78;143,74879;40,91;63,61;33,18007
"2015-05-04";199,3;128,7;48,24;100,83;143,10294;40,96;64,72;33,19
"2015-05-05";197,28999;125,8;47,6;100,42;142;40,75;64,4;32,64
"2015-05-06";196,25;125,01;46,28;100,22;141,03999;40,66;63,92;32,22
